{
    "serviceClients": [
        {
            "serviceClientName": "ServiceHost.Test.Client",
            "remoteServiceName": "WebAPI.Test.gRPC",
            "remoteHostType": "gRPC",
            "remoteClient": "Local-Dev",
            "enableActionLogToDB": true
            // "esLoggerName": "ESServiceClientActionAppender"
        }
    ],
    "gRPCProtocol": {
        "remoteClients": [
            {
                // 目前發現新版本的 C# gRPC Client 套件，如果在 alpine 3.9 以上的 docker container 執行時，只要使用「非 IP address」進行對 gRPC service 連線，就會產生以下的 exception，暫時找不到解決方法。
                // Grpc.Core.RpcException: Status(StatusCode=Unavailable, Detail="DNS resolution failed")
                // https://github.com/grpc/grpc/issues/18680
                // 但如果使用 ubuntu 18.04 bionic 的 docker container 執行，就可以使用 donaim name 對 gRPC service 進行連線，gRPC DNS Resolve 就會正常，因此，如果要使用 gRPC Client 建議使用 ubuntu 18.04 bionic 的 docker image。
                "name": "Local-Dev",
                "serverHost": "api-service-host",
                "serverPort": 1110
            },
            {
                "name": "Local-Dev2",
                "serverHost": "192.168.0.96",
                "serverPort": 1111
            },
            {
                "name": "Local-Dev3",
                "serverHost": "192.168.0.96",
                "serverPort": 5555
            }
        ]
    },
    "rabbitMQProtocol": {
        "defaultRemoteClient": "Local-Dev",
        "remoteClients": [
            {
                "name": "Local-Dev",
                "mbHost": "192.168.0.3",
                "mbPort": 5672,
                "mbUserId": "pony",
                "mbPassword": "Admin123",
                "mbVHost": "ZayniTest",
                "defaultExchange": "Middle.Test.Topic",
                "rpc": {
                    "exchange": "Middle.Test.Topic",
                    "routingKey": "RPC.Server.",
                    "rpcReplyQueue": "Middle.Server.RPC.Res", // 經過測試，rpcReplyQueue 也可以填寫空字串。
                    "rcpResponseTimeout": 5
                },
                "publish": {
                    "exchange": "Middle.Test.Topic",
                    "routingKey": "Event.Client."
                },
                "listen": {
                    // 指定監聽某一個 Exchange 的事件，並且給定 runtime 動態產生 consumer 的 Queue 名稱前綴字，支援 auto-scaling。
                    "exchangeName": "Middle.Test.Topic",
                    "queueNamePrefix": "Middle.Client.ListenServer.",
                    "exchangeRoutingKey": "Event.Server."
                    // 明確指定某一個 Queue 的監聽，不支援 auto-scaling 機制。
                    // "msgQueue": "Middle.Client.ListenServer.Msg",
                    // "msgRoutingKey": "Event.Server."
                }
            }
        ]
    },
    "tcpSocketProtocol": {
        "defaultRemoteClient": "Local-Dev",
        "remoteClients": [
            {
                "name": "Local-Dev",
                "tcpMsgEndsWith": "u0003",
                "tcpServerHost": "api-service-host",
                "tcpServerPort": 5590,
                "tcpSendBufferSize": 5,
                "tcpReceiveBufferSize": 5,
                "connectionTimeout": 1,
                "tcpResponseTimeout": 1
            },
            {
                "name": "Local-Dev2",
                "tcpMsgEndsWith": "u0003",
                "tcpServerHost": "192.168.0.96",
                "tcpServerPort": 5591,
                "tcpSendBufferSize": 5,
                "tcpReceiveBufferSize": 5,
                "connectionTimeout": 2,
                "tcpResponseTimeout": 1
            },
            {
                "name": "Local-Dev3",
                "tcpMsgEndsWith": "u0003",
                "tcpServerHost": "192.168.0.96",
                "tcpServerPort": 5592,
                "tcpSendBufferSize": 5,
                "tcpReceiveBufferSize": 5,
                "connectionTimeout": 2,
                "tcpResponseTimeout": 1
            }
        ]
    },
    "webSocketProtocol": {
        "defaultRemoteClient": "Local-Dev",
        "remoteClients": [
            {
                "name": "Local-Dev",
                "webSocketHostBaseUrl": "ws://api-service-host:5580",
                "wsResponseTimeout": 5
            },
            {
                "name": "Local-Dev2",
                "webSocketHostBaseUrl": "ws://192.168.0.96:5581",
                "wsResponseTimeout": 5
            },
            {
                "name": "Local-Dev3",
                "webSocketHostBaseUrl": "ws://192.168.0.96:5582",
                "wsResponseTimeout": 5
            }
        ]
    },
    "httpCoreProtocol": {
        "remoteClients": [
            {
                "name": "Local-Dev",
                "httpHostUrl": "http://api-service-host:5100/action/async",
                "httpResponseTimeout": 5
            },
            {
                "name": "Local-Dev2",
                "httpHostUrl": "http://192.168.0.96:5110/action/",
                "httpResponseTimeout": 5
            }
        ]
    }
}