{
  "ZayniFrameworkSettings": {
    "LoggingSettings": {
      "EnableLog": true,
      "EnableWindowsEventLog": false,
      "EsLogResetDays": 0,
      "DbLogResetDays": 0,
      "LoggerSettings": [
        {
          "Name": "_DefaultLog",
          "EnableLogger": true,
          "MaxFileSize": 10,
          "EnableConsoleOutput": true,
          "ConsoleColor": "Yellow",
          "DbLoggerName": "Zayni",
          "DbLoggerType": "MySQL",
          "EmailNotifyLoggerName": "",
          "ElasticStackLoggerName": "ESLogAppender",
          "FileLogSetting": {
            "Path": "./log/zayni.log"
          },
          "Filter": {
            "FilterType": "deny",
            "Category": "Information,Warning"
          }
        },
        {
          "Name": "RedisCacheTrace",
          "EnableLogger": false,
          "MaxFileSize": 10,
          "FileLogSetting": {
            "Path": "./log/zayni.log"
          },
          "Filter": {
            "FilterType": "deny",
            "Category": "Information,Warning"
          }
        },
        {
          "Name": "ServiceHostTrace",
          "EnableLogger": false,
          "MaxFileSize": 10,
          "EnableConsoleOutput": true,
          "ConsoleColor": "Green",
          "DbLoggerName": "Zayni",
          "DbLoggerType": "MySQL",
          "FileLogSetting": {
            "Path": "./log/zayni-service-host.log"
          },
          "Filter": {
            "FilterType": "deny",
            "Category": "Information,Warning"
          }
        },
        {
          "Name": "ServiceClientActionLog",
          "EnableLogger": true,
          "MaxFileSize": 10,
          "EnableConsoleOutput": true,
          "ConsoleColor": "Megenta",
          "ElasticStackLoggerName": "ESServiceClientActionAppender",
          "FileLogSetting": {
            "Path": "./log/zayni-client-action.log"
          },
          "Filter": {
            "FilterType": "deny",
            "Category": "Information,Warning"
          }
        }
      ],
      "ElasticStackLoggerSettings": [
        {
          "Name": "ESLogAppender",
          "IsDefault": true,
          "HostUrl": "http://{{CONTAINER_HOST_IP}}:9200",
          "DefaultIndex": "zayni",
          "EnableRetry": true,
          "RetryTimes": 3
        },
        {
          "Name": "ESServiceClientActionAppender",
          "HostUrl": "http://{{CONTAINER_HOST_IP}}:9200",
          "DefaultIndex": "zayni-service-client-action-log",
          "EnableRetry": true,
          "RetryTimes": 3
        },
        {
          "Name": "ESSQLAppender",
          "HostUrl": "http://{{CONTAINER_HOST_IP}}:9200",
          "DefaultIndex": "zayni-webapi-sql-log",
          "EnableRetry": true,
          "RetryTimes": 3
        }
      ]
    },
    "CachingSettings": {
      "Mode": "memory",
      "CachePoolSetting": {
        "ResetEnable": false,
        "CleanerIntervalSecond": 5,
        "MaxCapacity": 10000,
        "RefreshIntervalMinute": 1
      },
      "CacheDataSetting": {
        "TimeoutInterval": 0
      },
      "RedisCacheSettings": [
        {
          "Name": "Local-Dev",
          "IsDefault": true,
          "DbActionLog": true,
          "Host": "{{CONTAINER_HOST_IP}}",
          "Port": 6379,
          "Password": "Admin123",
          "DatabaseNo": 15,
          "ConnectTimeout": 1000,
          "SyncTimeout": 30,
          "ElasticStackLoggerName": "ESRedisActionAppender"
        }
      ]
    },
    "DataAccessSettings": [
      {
        "Name": "Zayni",
        "DatabaseProvider": "MySQL",
        "ConnectionString": "Server={{CONTAINER_HOST_IP}};Database=zayni;Uid=pony;Password=Admin123;Allow User Variables=True;Charset=utf8;Convert Zero Datetime=True;SslMode=none",
        "EncryptKey": "",
        "EnableSqlLogProfile": false,
        "ElasticStackLoggerName": "ESSQLAppender"
      },
      {
        "Name": "ZayniUnitTest",
        "DatabaseProvider": "MySQL",
        "ConnectionString": "Server={{CONTAINER_HOST_IP}};Database=zayni;Uid=pony;Password=Admin123;Allow User Variables=True;Charset=utf8;Convert Zero Datetime=True;SslMode=none",
        "EncryptKey": "",
        "EnableSqlLogProfile": false,
        "ElasticStackLoggerName": "ESSQLAppender"
      }
    ],
    "TelnetServerSettings": {
      "EnableTelnetServer": true,
      "TelnetServerPort": 2223,
      "TelnetServerPassword": "Admin123"
    }
  },
  "AppSettings": [
    {
      "Key": "WebAPIUrl",
      "Value": "http://zayni-lab.ddns.net:31178/zayni/api/"
      // "Value": "http://localhost:5000/"
    }
  ]
}